Project 2
…
3. What is the average session time for each unique group?

CREATE TWO NEW DATAFRAMES: PUT THE LOGINS IN ONE, AND THE SESSION ENDINGS IN ANOTHER - THE LOGINS FRAME IS BASED ON ATTEMPTRESULT = LOGIN - THE LOGOUTS ARE BASED ON THE DIFFERENT POSSIBLE SESSION ENDINGS, KEEPING IN MIND THAT THERE MAY BE MORE THAN ONE RECORD FOR THESE SESSION END (AND AT DIFFERENT TIMES.)

  logins <- filtered_data %>% filter(attemptresult == "LOGIN")
  logouts <- filtered_data %>% filter (attemptresult == "LOGOUT" | attemptresult == "TIMEOUT" | attemptresult == "RESTART" | attemptresult == "SYSLOGOUT")

RATIONALE FOR DETERMINING SESSION LENGTH IF THERE ARE MULTIPLE SESSION ENDINGS FOR THE SAME USER/SESSION, USE THE EARLIEST ONE AS THE SESSION END.THIS WILL BE USED TO DETERMINE THE SESSION LENGTH. IN LOOKING AT SOME OF THE DATA, THERE MIGHT BE A SYSLOGOUT MULTIPLE HOURS AFTER A USER LOGGED OUT OF MAXIMO OR TIMED OUT. THERE MAY ALSO BE CASES WHERE THERE IS ONLY A SYSLOGOUT FOR THE SESSION, SO THAT WILL BE THE RECORD USED TO DETERMINE SESSION LENGTH.

  filter_out <- logouts %>% group_by(maxsessionuid) %>% filter(attemptdate == min(attemptdate))
  filter_out

## # A tibble: 26,466 x 5
## # Groups:   maxsessionuid [26,462]
##    attemptdate         attemptresult userid  type       maxsessionuid
##    <chr>               <fct>         <chr>   <fct>              <int>
##  1 2020-03-01 00:01:22 SYSLOGOUT     HBA1633 EXPRESS           873258
##  2 2020-03-01 01:01:24 SYSLOGOUT     HBA2266 LIMITED           873665
##  3 2020-03-01 01:02:01 SYSLOGOUT     HBA1758 AUTHORIZED        873787
##  4 2020-03-01 01:02:02 SYSLOGOUT     HBA1726 LIMITED           873366
##  5 2020-03-01 01:41:59 TIMEOUT       HBA1659 LIMITED           873260
##  6 2020-03-01 02:42:45 TIMEOUT       HBA1824 AUTHORIZED        873490
##  7 2020-03-01 02:57:50 TIMEOUT       HBA1789 LIMITED           873893
##  8 2020-03-01 03:17:56 LOGOUT        HBA1885 LIMITED           873903
##  9 2020-03-01 03:28:14 LOGOUT        HBA1726 LIMITED           873902
## 10 2020-03-01 03:54:42 LOGOUT        HBA2225 EXPRESS           874102
## #  with 26,456 more rows
…
